<?xml version="1.0" encoding="UTF-8" standalone="no"?>
<!-- Created with Inkscape (http://www.inkscape.org/) -->

<svg
   xmlns:dc="http://purl.org/dc/elements/1.1/"
   xmlns:cc="http://creativecommons.org/ns#"
   xmlns:rdf="http://www.w3.org/1999/02/22-rdf-syntax-ns#"
   xmlns:svg="http://www.w3.org/2000/svg"
   xmlns="http://www.w3.org/2000/svg"
   xmlns:sodipodi="http://sodipodi.sourceforge.net/DTD/sodipodi-0.dtd"
   xmlns:inkscape="http://www.inkscape.org/namespaces/inkscape"
   width="228.52098mm"
   height="139.07791mm"
   viewBox="0 0 228.52098 139.07791"
   version="1.1"
   id="svg8"
   inkscape:version="0.92.3 (2405546, 2018-03-11)"
   sodipodi:docname="objectif 1.svg"
   inkscape:export-filename="/home/romain/Documents/UTC/GI04/NF26/nf26_projet/diapo_dessin/objectif 1.png"
   inkscape:export-xdpi="90"
   inkscape:export-ydpi="90">
  <defs
     id="defs2" />
  <sodipodi:namedview
     id="base"
     pagecolor="#ffffff"
     bordercolor="#666666"
     borderopacity="1.0"
     inkscape:pageopacity="0.0"
     inkscape:pageshadow="2"
     inkscape:zoom="1.203125"
     inkscape:cx="456.1724"
     inkscape:cy="228.74203"
     inkscape:document-units="mm"
     inkscape:current-layer="layer1"
     showgrid="false"
     inkscape:window-width="1853"
     inkscape:window-height="1025"
     inkscape:window-x="67"
     inkscape:window-y="27"
     inkscape:window-maximized="1"
     fit-margin-top="0"
     fit-margin-left="0"
     fit-margin-right="0"
     fit-margin-bottom="0" />
  <metadata
     id="metadata5">
    <rdf:RDF>
      <cc:Work
         rdf:about="">
        <dc:format>image/svg+xml</dc:format>
        <dc:type
           rdf:resource="http://purl.org/dc/dcmitype/StillImage" />
        <dc:title></dc:title>
      </cc:Work>
    </rdf:RDF>
  </metadata>
  <g
     inkscape:label="Calque 1"
     inkscape:groupmode="layer"
     id="layer1"
     transform="translate(-8.4152355,-3.7309169)">
    <g
       id="g1165"
       transform="translate(-17.462505)">
      <path
         inkscape:connector-curvature="0"
         id="path12"
         d="m 34.832509,47.33043 v 95.47839"
         style="fill:none;fill-opacity:1;stroke:#b600ff;stroke-width:0.76499999;stroke-linecap:butt;stroke-linejoin:miter;stroke-miterlimit:4;stroke-dasharray:none;stroke-opacity:1" />
      <path
         inkscape:connector-curvature="0"
         id="path12-3"
         d="M 59.99011,46.934286 V 142.41266"
         style="fill:none;fill-opacity:1;stroke:#b600ff;stroke-width:0.76499999;stroke-linecap:butt;stroke-linejoin:miter;stroke-miterlimit:4;stroke-dasharray:none;stroke-opacity:1" />
      <g
         style="fill:none;fill-opacity:1;stroke:#b600ff;stroke-width:0.96982998;stroke-opacity:1"
         transform="matrix(1.0265165,0,0,1.0357212,-4.2497444,-20.663504)"
         id="g891">
        <path
           style="fill:none;fill-opacity:1;stroke:#b600ff;stroke-width:0.74191993;stroke-linecap:butt;stroke-linejoin:miter;stroke-miterlimit:4;stroke-dasharray:none;stroke-opacity:1"
           d="M 37.700079,157.4518 H 62.58044"
           id="path837"
           inkscape:connector-curvature="0" />
        <path
           style="fill:none;fill-opacity:1;stroke:#b600ff;stroke-width:0.74191993;stroke-linecap:butt;stroke-linejoin:miter;stroke-miterlimit:4;stroke-dasharray:none;stroke-opacity:1"
           d="M 37.700079,142.18833 H 62.58044"
           id="path837-6"
           inkscape:connector-curvature="0" />
        <path
           style="fill:none;fill-opacity:1;stroke:#b600ff;stroke-width:0.74191993;stroke-linecap:butt;stroke-linejoin:miter;stroke-miterlimit:4;stroke-dasharray:none;stroke-opacity:1"
           d="M 37.700079,126.92487 H 62.58044"
           id="path837-7"
           inkscape:connector-curvature="0" />
        <path
           style="fill:none;fill-opacity:1;stroke:#b600ff;stroke-width:0.74191993;stroke-linecap:butt;stroke-linejoin:miter;stroke-miterlimit:4;stroke-dasharray:none;stroke-opacity:1"
           d="M 37.700079,111.66141 H 62.58044"
           id="path837-5"
           inkscape:connector-curvature="0" />
        <path
           style="fill:none;fill-opacity:1;stroke:#b600ff;stroke-width:0.74191993;stroke-linecap:butt;stroke-linejoin:miter;stroke-miterlimit:4;stroke-dasharray:none;stroke-opacity:1"
           d="M 37.700079,96.397931 H 62.58044"
           id="path837-3"
           inkscape:connector-curvature="0" />
        <path
           style="fill:none;fill-opacity:1;stroke:#b600ff;stroke-width:0.74191993;stroke-linecap:butt;stroke-linejoin:miter;stroke-miterlimit:4;stroke-dasharray:none;stroke-opacity:1"
           d="M 37.700079,81.134458 H 62.58044"
           id="path837-56"
           inkscape:connector-curvature="0" />
        <path
           style="fill:none;fill-opacity:1;stroke:#b600ff;stroke-width:0.74191993;stroke-linecap:butt;stroke-linejoin:miter;stroke-miterlimit:4;stroke-dasharray:none;stroke-opacity:1"
           d="M 37.700079,65.870996 H 62.58044"
           id="path837-2"
           inkscape:connector-curvature="0" />
      </g>
    </g>
    <text
       xml:space="preserve"
       style="font-style:normal;font-weight:normal;font-size:10.58333302px;line-height:1.25;font-family:sans-serif;letter-spacing:0px;word-spacing:0px;fill:#b600ff;fill-opacity:1;stroke:none;stroke-width:0.26458332"
       x="11.895643"
       y="40.858315"
       id="text1139"><tspan
         sodipodi:role="line"
         id="tspan1137"
         x="11.895643"
         y="40.858315"
         style="fill:#b600ff;fill-opacity:1;stroke-width:0.26458332">station</tspan></text>
    <text
       xml:space="preserve"
       style="font-style:normal;font-weight:normal;font-size:10.58333302px;line-height:1.25;font-family:sans-serif;letter-spacing:0px;word-spacing:0px;fill:#b600ff;fill-opacity:1;stroke:none;stroke-width:0.26458332"
       x="29.922966"
       y="11.77177"
       id="text1153"><tspan
         sodipodi:role="line"
         id="tspan1151"
         x="31.607618"
         y="11.77177"
         style="text-align:center;text-anchor:middle;fill:#b600ff;fill-opacity:1;stroke-width:0.26458332">Clef de </tspan><tspan
         sodipodi:role="line"
         x="29.922966"
         y="25.000937"
         style="text-align:center;text-anchor:middle;fill:#b600ff;fill-opacity:1;stroke-width:0.26458332"
         id="tspan1167">partition</tspan></text>
    <g
       id="g1317"
       style="fill:#ff8f00;fill-opacity:1;stroke:#ff8f00;stroke-opacity:1">
      <g
         id="g903-9"
         transform="translate(32.810979,-15.025476)"
         style="fill:#ff8f00;fill-opacity:1;stroke:#ff8f00;stroke-opacity:1">
        <path
           style="fill:#ff8f00;fill-opacity:1;stroke:#ff8f00;stroke-width:0.76499999;stroke-linecap:butt;stroke-linejoin:miter;stroke-miterlimit:4;stroke-dasharray:none;stroke-opacity:1"
           d="M 34.832509,62.355906 V 157.8343"
           id="path12-1"
           inkscape:connector-curvature="0" />
        <path
           style="fill:#ff8f00;fill-opacity:1;stroke:#ff8f00;stroke-width:0.76499999;stroke-linecap:butt;stroke-linejoin:miter;stroke-miterlimit:4;stroke-dasharray:none;stroke-opacity:1"
           d="M 60.023876,61.910748 V 157.38913"
           id="path12-3-2"
           inkscape:connector-curvature="0" />
        <g
           id="g891-7"
           transform="matrix(1.0265165,0,0,1.0357212,-4.2497444,-5.6380278)"
           style="fill:#ff8f00;fill-opacity:1;stroke:#ff8f00;stroke-width:0.96982998;stroke-opacity:1">
          <path
             inkscape:connector-curvature="0"
             id="path837-0"
             d="M 37.700079,157.4518 H 62.58044"
             style="fill:#ff8f00;fill-opacity:1;stroke:#ff8f00;stroke-width:0.74191993;stroke-linecap:butt;stroke-linejoin:miter;stroke-miterlimit:4;stroke-dasharray:none;stroke-opacity:1" />
          <path
             inkscape:connector-curvature="0"
             id="path837-6-9"
             d="M 37.700079,142.18833 H 62.58044"
             style="fill:#ff8f00;fill-opacity:1;stroke:#ff8f00;stroke-width:0.74191993;stroke-linecap:butt;stroke-linejoin:miter;stroke-miterlimit:4;stroke-dasharray:none;stroke-opacity:1" />
          <path
             inkscape:connector-curvature="0"
             id="path837-7-3"
             d="M 37.700079,126.92487 H 62.58044"
             style="fill:#ff8f00;fill-opacity:1;stroke:#ff8f00;stroke-width:0.74191993;stroke-linecap:butt;stroke-linejoin:miter;stroke-miterlimit:4;stroke-dasharray:none;stroke-opacity:1" />
          <path
             inkscape:connector-curvature="0"
             id="path837-5-6"
             d="M 37.700079,111.66141 H 62.58044"
             style="fill:#ff8f00;fill-opacity:1;stroke:#ff8f00;stroke-width:0.74191993;stroke-linecap:butt;stroke-linejoin:miter;stroke-miterlimit:4;stroke-dasharray:none;stroke-opacity:1" />
          <path
             inkscape:connector-curvature="0"
             id="path837-3-0"
             d="M 37.700079,96.397931 H 62.58044"
             style="fill:#ff8f00;fill-opacity:1;stroke:#ff8f00;stroke-width:0.74191993;stroke-linecap:butt;stroke-linejoin:miter;stroke-miterlimit:4;stroke-dasharray:none;stroke-opacity:1" />
          <path
             inkscape:connector-curvature="0"
             id="path837-56-6"
             d="M 37.700079,81.134458 H 62.58044"
             style="fill:#ff8f00;fill-opacity:1;stroke:#ff8f00;stroke-width:0.74191993;stroke-linecap:butt;stroke-linejoin:miter;stroke-miterlimit:4;stroke-dasharray:none;stroke-opacity:1" />
          <path
             inkscape:connector-curvature="0"
             id="path837-2-2"
             d="M 37.700079,65.870996 H 62.58044"
             style="fill:#ff8f00;fill-opacity:1;stroke:#ff8f00;stroke-width:0.74191993;stroke-linecap:butt;stroke-linejoin:miter;stroke-miterlimit:4;stroke-dasharray:none;stroke-opacity:1" />
        </g>
      </g>
      <path
         inkscape:connector-curvature="0"
         id="path1173"
         d="M 68.17316,52.676189 H 92.583549"
         style="fill:#ff8f00;fill-opacity:1;stroke:#ff8f00;stroke-width:0.26499999;stroke-linecap:butt;stroke-linejoin:miter;stroke-miterlimit:4;stroke-dasharray:0.79499996, 0.26499999;stroke-dashoffset:0;stroke-opacity:1" />
      <path
         inkscape:connector-curvature="0"
         id="path1173-9"
         d="M 67.884523,58.524513 H 92.294912"
         style="fill:#ff8f00;fill-opacity:1;stroke:#ff8f00;stroke-width:0.26499999;stroke-linecap:butt;stroke-linejoin:miter;stroke-miterlimit:4;stroke-dasharray:0.79499997, 0.26499999;stroke-dashoffset:0;stroke-opacity:1" />
      <path
         inkscape:connector-curvature="0"
         id="path1173-6"
         d="M 67.664517,67.723078 H 92.074906"
         style="fill:#ff8f00;fill-opacity:1;stroke:#ff8f00;stroke-width:0.26499999;stroke-linecap:butt;stroke-linejoin:miter;stroke-miterlimit:4;stroke-dasharray:0.79499997, 0.26499999;stroke-dashoffset:0;stroke-opacity:1" />
      <path
         inkscape:connector-curvature="0"
         id="path1173-9-4"
         d="M 67.37588,73.571402 H 91.786269"
         style="fill:#ff8f00;fill-opacity:1;stroke:#ff8f00;stroke-width:0.26499999;stroke-linecap:butt;stroke-linejoin:miter;stroke-miterlimit:4;stroke-dasharray:0.79499998, 0.26499999;stroke-dashoffset:0;stroke-opacity:1" />
      <path
         inkscape:connector-curvature="0"
         id="path1173-0"
         d="M 68.056237,83.948564 H 92.466626"
         style="fill:#ff8f00;fill-opacity:1;stroke:#ff8f00;stroke-width:0.26499999;stroke-linecap:butt;stroke-linejoin:miter;stroke-miterlimit:4;stroke-dasharray:0.79499997, 0.26499999;stroke-dashoffset:0;stroke-opacity:1" />
      <path
         inkscape:connector-curvature="0"
         id="path1173-9-48"
         d="M 67.7676,89.796888 H 92.177989"
         style="fill:#ff8f00;fill-opacity:1;stroke:#ff8f00;stroke-width:0.26499999;stroke-linecap:butt;stroke-linejoin:miter;stroke-miterlimit:4;stroke-dasharray:0.79499998, 0.26499999;stroke-dashoffset:0;stroke-opacity:1" />
      <path
         inkscape:connector-curvature="0"
         id="path1173-7"
         d="M 68.592246,100.22216 H 93.002635"
         style="fill:#ff8f00;fill-opacity:1;stroke:#ff8f00;stroke-width:0.26499999;stroke-linecap:butt;stroke-linejoin:miter;stroke-miterlimit:4;stroke-dasharray:0.79499997, 0.26499999;stroke-dashoffset:0;stroke-opacity:1" />
      <path
         inkscape:connector-curvature="0"
         id="path1173-9-2"
         d="M 68.303609,106.07049 H 92.713998"
         style="fill:#ff8f00;fill-opacity:1;stroke:#ff8f00;stroke-width:0.26499999;stroke-linecap:butt;stroke-linejoin:miter;stroke-miterlimit:4;stroke-dasharray:0.79499998, 0.26499999;stroke-dashoffset:0;stroke-opacity:1" />
      <path
         inkscape:connector-curvature="0"
         id="path1173-61"
         d="M 67.932506,115.83601 H 92.342895"
         style="fill:#ff8f00;fill-opacity:1;stroke:#ff8f00;stroke-width:0.26499999;stroke-linecap:butt;stroke-linejoin:miter;stroke-miterlimit:4;stroke-dasharray:0.79499997, 0.26499999;stroke-dashoffset:0;stroke-opacity:1" />
      <path
         inkscape:connector-curvature="0"
         id="path1173-9-0"
         d="M 67.643869,121.68433 H 92.054258"
         style="fill:#ff8f00;fill-opacity:1;stroke:#ff8f00;stroke-width:0.26499999;stroke-linecap:butt;stroke-linejoin:miter;stroke-miterlimit:4;stroke-dasharray:0.79499998, 0.26499999;stroke-dashoffset:0;stroke-opacity:1" />
      <path
         inkscape:connector-curvature="0"
         id="path1173-4"
         d="M 68.640353,132.1096 H 93.050742"
         style="fill:#ff8f00;fill-opacity:1;stroke:#ff8f00;stroke-width:0.26499999;stroke-linecap:butt;stroke-linejoin:miter;stroke-miterlimit:4;stroke-dasharray:0.79499997, 0.26499999;stroke-dashoffset:0;stroke-opacity:1" />
      <path
         inkscape:connector-curvature="0"
         id="path1173-9-9"
         d="M 67.293382,137.95793 H 91.703771"
         style="fill:#ff8f00;fill-opacity:1;stroke:#ff8f00;stroke-width:0.26499999;stroke-linecap:butt;stroke-linejoin:miter;stroke-miterlimit:4;stroke-dasharray:0.79499998, 0.26499999;stroke-dashoffset:0;stroke-opacity:1" />
    </g>
    <g
       id="g1387">
      <g
         transform="translate(0,-0.311005)"
         id="g1135">
        <g
           transform="translate(73.863579,-14.714471)"
           id="g903-6">
          <path
             inkscape:connector-curvature="0"
             id="path12-18"
             d="M 34.832509,62.355906 V 157.8343"
             style="fill:none;stroke:#000000;stroke-width:0.76499999;stroke-linecap:butt;stroke-linejoin:miter;stroke-miterlimit:4;stroke-dasharray:none;stroke-opacity:1" />
          <path
             inkscape:connector-curvature="0"
             id="path12-3-7"
             d="M 60.023876,61.910748 V 157.38913"
             style="fill:none;stroke:#000000;stroke-width:0.76499999;stroke-linecap:butt;stroke-linejoin:miter;stroke-miterlimit:4;stroke-dasharray:none;stroke-opacity:1" />
          <g
             style="stroke-width:0.96982998"
             transform="matrix(1.0265165,0,0,1.0357212,-4.2497444,-5.6380278)"
             id="g891-9">
            <path
               style="fill:none;stroke:#000000;stroke-width:0.74191993;stroke-linecap:butt;stroke-linejoin:miter;stroke-miterlimit:4;stroke-dasharray:none;stroke-opacity:1"
               d="M 37.700079,157.4518 H 62.58044"
               id="path837-20"
               inkscape:connector-curvature="0" />
            <path
               style="fill:none;stroke:#000000;stroke-width:0.74191993;stroke-linecap:butt;stroke-linejoin:miter;stroke-miterlimit:4;stroke-dasharray:none;stroke-opacity:1"
               d="M 37.700079,142.18833 H 62.58044"
               id="path837-6-2"
               inkscape:connector-curvature="0" />
            <path
               style="fill:none;stroke:#000000;stroke-width:0.74191993;stroke-linecap:butt;stroke-linejoin:miter;stroke-miterlimit:4;stroke-dasharray:none;stroke-opacity:1"
               d="M 37.700079,126.92487 H 62.58044"
               id="path837-7-37"
               inkscape:connector-curvature="0" />
            <path
               style="fill:none;stroke:#000000;stroke-width:0.74191993;stroke-linecap:butt;stroke-linejoin:miter;stroke-miterlimit:4;stroke-dasharray:none;stroke-opacity:1"
               d="M 37.700079,111.66141 H 62.58044"
               id="path837-5-5"
               inkscape:connector-curvature="0" />
            <path
               style="fill:none;stroke:#000000;stroke-width:0.74191993;stroke-linecap:butt;stroke-linejoin:miter;stroke-miterlimit:4;stroke-dasharray:none;stroke-opacity:1"
               d="M 37.700079,96.397931 H 62.58044"
               id="path837-3-9"
               inkscape:connector-curvature="0" />
            <path
               style="fill:none;stroke:#000000;stroke-width:0.74191993;stroke-linecap:butt;stroke-linejoin:miter;stroke-miterlimit:4;stroke-dasharray:none;stroke-opacity:1"
               d="M 37.700079,81.134458 H 62.58044"
               id="path837-56-2"
               inkscape:connector-curvature="0" />
            <path
               style="fill:none;stroke:#000000;stroke-width:0.74191993;stroke-linecap:butt;stroke-linejoin:miter;stroke-miterlimit:4;stroke-dasharray:none;stroke-opacity:1"
               d="M 37.700079,65.870996 H 62.58044"
               id="path837-2-28"
               inkscape:connector-curvature="0" />
          </g>
        </g>
        <g
           transform="translate(99.403678,-14.714471)"
           id="g903-97">
          <path
             inkscape:connector-curvature="0"
             id="path12-36"
             d="M 34.832509,62.355906 V 157.8343"
             style="fill:none;stroke:#000000;stroke-width:0.76499999;stroke-linecap:butt;stroke-linejoin:miter;stroke-miterlimit:4;stroke-dasharray:none;stroke-opacity:1" />
          <path
             inkscape:connector-curvature="0"
             id="path12-3-1"
             d="M 60.023876,61.910748 V 157.38913"
             style="fill:none;stroke:#000000;stroke-width:0.76499999;stroke-linecap:butt;stroke-linejoin:miter;stroke-miterlimit:4;stroke-dasharray:none;stroke-opacity:1" />
          <g
             style="stroke-width:0.96982998"
             transform="matrix(1.0265165,0,0,1.0357212,-4.2497444,-5.6380278)"
             id="g891-2">
            <path
               style="fill:none;stroke:#000000;stroke-width:0.74191993;stroke-linecap:butt;stroke-linejoin:miter;stroke-miterlimit:4;stroke-dasharray:none;stroke-opacity:1"
               d="M 37.700079,157.4518 H 62.58044"
               id="path837-9"
               inkscape:connector-curvature="0" />
            <path
               style="fill:none;stroke:#000000;stroke-width:0.74191993;stroke-linecap:butt;stroke-linejoin:miter;stroke-miterlimit:4;stroke-dasharray:none;stroke-opacity:1"
               d="M 37.700079,142.18833 H 62.58044"
               id="path837-6-3"
               inkscape:connector-curvature="0" />
            <path
               style="fill:none;stroke:#000000;stroke-width:0.74191993;stroke-linecap:butt;stroke-linejoin:miter;stroke-miterlimit:4;stroke-dasharray:none;stroke-opacity:1"
               d="M 37.700079,126.92487 H 62.58044"
               id="path837-7-1"
               inkscape:connector-curvature="0" />
            <path
               style="fill:none;stroke:#000000;stroke-width:0.74191993;stroke-linecap:butt;stroke-linejoin:miter;stroke-miterlimit:4;stroke-dasharray:none;stroke-opacity:1"
               d="M 37.700079,111.66141 H 62.58044"
               id="path837-5-9"
               inkscape:connector-curvature="0" />
            <path
               style="fill:none;stroke:#000000;stroke-width:0.74191993;stroke-linecap:butt;stroke-linejoin:miter;stroke-miterlimit:4;stroke-dasharray:none;stroke-opacity:1"
               d="M 37.700079,96.397931 H 62.58044"
               id="path837-3-4"
               inkscape:connector-curvature="0" />
            <path
               style="fill:none;stroke:#000000;stroke-width:0.74191993;stroke-linecap:butt;stroke-linejoin:miter;stroke-miterlimit:4;stroke-dasharray:none;stroke-opacity:1"
               d="M 37.700079,81.134458 H 62.58044"
               id="path837-56-7"
               inkscape:connector-curvature="0" />
            <path
               style="fill:none;stroke:#000000;stroke-width:0.74191993;stroke-linecap:butt;stroke-linejoin:miter;stroke-miterlimit:4;stroke-dasharray:none;stroke-opacity:1"
               d="M 37.700079,65.870996 H 62.58044"
               id="path837-2-8"
               inkscape:connector-curvature="0" />
          </g>
        </g>
        <g
           transform="translate(124.94378,-14.714471)"
           id="g903-4">
          <path
             inkscape:connector-curvature="0"
             id="path12-5"
             d="M 34.832509,62.355906 V 157.8343"
             style="fill:none;stroke:#000000;stroke-width:0.76499999;stroke-linecap:butt;stroke-linejoin:miter;stroke-miterlimit:4;stroke-dasharray:none;stroke-opacity:1" />
          <path
             inkscape:connector-curvature="0"
             id="path12-3-0"
             d="M 60.023876,61.910748 V 157.38913"
             style="fill:none;stroke:#000000;stroke-width:0.76499999;stroke-linecap:butt;stroke-linejoin:miter;stroke-miterlimit:4;stroke-dasharray:none;stroke-opacity:1" />
          <g
             style="stroke-width:0.96982998"
             transform="matrix(1.0265165,0,0,1.0357212,-4.2497444,-5.6380278)"
             id="g891-3">
            <path
               style="fill:none;stroke:#000000;stroke-width:0.74191993;stroke-linecap:butt;stroke-linejoin:miter;stroke-miterlimit:4;stroke-dasharray:none;stroke-opacity:1"
               d="M 37.700079,157.4518 H 62.58044"
               id="path837-61"
               inkscape:connector-curvature="0" />
            <path
               style="fill:none;stroke:#000000;stroke-width:0.74191993;stroke-linecap:butt;stroke-linejoin:miter;stroke-miterlimit:4;stroke-dasharray:none;stroke-opacity:1"
               d="M 37.700079,142.18833 H 62.58044"
               id="path837-6-0"
               inkscape:connector-curvature="0" />
            <path
               style="fill:none;stroke:#000000;stroke-width:0.74191993;stroke-linecap:butt;stroke-linejoin:miter;stroke-miterlimit:4;stroke-dasharray:none;stroke-opacity:1"
               d="M 37.700079,126.92487 H 62.58044"
               id="path837-7-6"
               inkscape:connector-curvature="0" />
            <path
               style="fill:none;stroke:#000000;stroke-width:0.74191993;stroke-linecap:butt;stroke-linejoin:miter;stroke-miterlimit:4;stroke-dasharray:none;stroke-opacity:1"
               d="M 37.700079,111.66141 H 62.58044"
               id="path837-5-3"
               inkscape:connector-curvature="0" />
            <path
               style="fill:none;stroke:#000000;stroke-width:0.74191993;stroke-linecap:butt;stroke-linejoin:miter;stroke-miterlimit:4;stroke-dasharray:none;stroke-opacity:1"
               d="M 37.700079,96.397931 H 62.58044"
               id="path837-3-2"
               inkscape:connector-curvature="0" />
            <path
               style="fill:none;stroke:#000000;stroke-width:0.74191993;stroke-linecap:butt;stroke-linejoin:miter;stroke-miterlimit:4;stroke-dasharray:none;stroke-opacity:1"
               d="M 37.700079,81.134458 H 62.58044"
               id="path837-56-0"
               inkscape:connector-curvature="0" />
            <path
               style="fill:none;stroke:#000000;stroke-width:0.74191993;stroke-linecap:butt;stroke-linejoin:miter;stroke-miterlimit:4;stroke-dasharray:none;stroke-opacity:1"
               d="M 37.700079,65.870996 H 62.58044"
               id="path837-2-6"
               inkscape:connector-curvature="0" />
          </g>
        </g>
        <g
           transform="translate(150.48388,-14.714471)"
           id="g903-1">
          <path
             inkscape:connector-curvature="0"
             id="path12-55"
             d="M 34.832509,62.355906 V 157.8343"
             style="fill:none;stroke:#000000;stroke-width:0.76499999;stroke-linecap:butt;stroke-linejoin:miter;stroke-miterlimit:4;stroke-dasharray:none;stroke-opacity:1" />
          <path
             inkscape:connector-curvature="0"
             id="path12-3-4"
             d="M 60.023876,61.910748 V 157.38913"
             style="fill:none;stroke:#000000;stroke-width:0.76499999;stroke-linecap:butt;stroke-linejoin:miter;stroke-miterlimit:4;stroke-dasharray:none;stroke-opacity:1" />
          <g
             style="stroke-width:0.96982998"
             transform="matrix(1.0265165,0,0,1.0357212,-4.2497444,-5.6380278)"
             id="g891-76">
            <path
               style="fill:none;stroke:#000000;stroke-width:0.74191993;stroke-linecap:butt;stroke-linejoin:miter;stroke-miterlimit:4;stroke-dasharray:none;stroke-opacity:1"
               d="M 37.700079,157.4518 H 62.58044"
               id="path837-569"
               inkscape:connector-curvature="0" />
            <path
               style="fill:none;stroke:#000000;stroke-width:0.74191993;stroke-linecap:butt;stroke-linejoin:miter;stroke-miterlimit:4;stroke-dasharray:none;stroke-opacity:1"
               d="M 37.700079,142.18833 H 62.58044"
               id="path837-6-37"
               inkscape:connector-curvature="0" />
            <path
               style="fill:none;stroke:#000000;stroke-width:0.74191993;stroke-linecap:butt;stroke-linejoin:miter;stroke-miterlimit:4;stroke-dasharray:none;stroke-opacity:1"
               d="M 37.700079,126.92487 H 62.58044"
               id="path837-7-4"
               inkscape:connector-curvature="0" />
            <path
               style="fill:none;stroke:#000000;stroke-width:0.74191993;stroke-linecap:butt;stroke-linejoin:miter;stroke-miterlimit:4;stroke-dasharray:none;stroke-opacity:1"
               d="M 37.700079,111.66141 H 62.58044"
               id="path837-5-52"
               inkscape:connector-curvature="0" />
            <path
               style="fill:none;stroke:#000000;stroke-width:0.74191993;stroke-linecap:butt;stroke-linejoin:miter;stroke-miterlimit:4;stroke-dasharray:none;stroke-opacity:1"
               d="M 37.700079,96.397931 H 62.58044"
               id="path837-3-5"
               inkscape:connector-curvature="0" />
            <path
               style="fill:none;stroke:#000000;stroke-width:0.74191993;stroke-linecap:butt;stroke-linejoin:miter;stroke-miterlimit:4;stroke-dasharray:none;stroke-opacity:1"
               d="M 37.700079,81.134458 H 62.58044"
               id="path837-56-4"
               inkscape:connector-curvature="0" />
            <path
               style="fill:none;stroke:#000000;stroke-width:0.74191993;stroke-linecap:butt;stroke-linejoin:miter;stroke-miterlimit:4;stroke-dasharray:none;stroke-opacity:1"
               d="M 37.700079,65.870996 H 62.58044"
               id="path837-2-7"
               inkscape:connector-curvature="0" />
          </g>
        </g>
        <g
           transform="translate(176.02398,-14.714471)"
           id="g903-44">
          <path
             inkscape:connector-curvature="0"
             id="path12-30"
             d="M 34.832509,62.355906 V 157.8343"
             style="fill:none;stroke:#000000;stroke-width:0.76499999;stroke-linecap:butt;stroke-linejoin:miter;stroke-miterlimit:4;stroke-dasharray:none;stroke-opacity:1" />
          <path
             inkscape:connector-curvature="0"
             id="path12-3-78"
             d="M 60.023876,61.910748 V 157.38913"
             style="fill:none;stroke:#000000;stroke-width:0.76499999;stroke-linecap:butt;stroke-linejoin:miter;stroke-miterlimit:4;stroke-dasharray:none;stroke-opacity:1" />
          <g
             style="stroke-width:0.96982998"
             transform="matrix(1.0265165,0,0,1.0357212,-4.2497444,-5.6380278)"
             id="g891-6">
            <path
               style="fill:none;stroke:#000000;stroke-width:0.74191993;stroke-linecap:butt;stroke-linejoin:miter;stroke-miterlimit:4;stroke-dasharray:none;stroke-opacity:1"
               d="M 37.700079,157.4518 H 62.58044"
               id="path837-8"
               inkscape:connector-curvature="0" />
            <path
               style="fill:none;stroke:#000000;stroke-width:0.74191993;stroke-linecap:butt;stroke-linejoin:miter;stroke-miterlimit:4;stroke-dasharray:none;stroke-opacity:1"
               d="M 37.700079,142.18833 H 62.58044"
               id="path837-6-8"
               inkscape:connector-curvature="0" />
            <path
               style="fill:none;stroke:#000000;stroke-width:0.74191993;stroke-linecap:butt;stroke-linejoin:miter;stroke-miterlimit:4;stroke-dasharray:none;stroke-opacity:1"
               d="M 37.700079,126.92487 H 62.58044"
               id="path837-7-43"
               inkscape:connector-curvature="0" />
            <path
               style="fill:none;stroke:#000000;stroke-width:0.74191993;stroke-linecap:butt;stroke-linejoin:miter;stroke-miterlimit:4;stroke-dasharray:none;stroke-opacity:1"
               d="M 37.700079,111.66141 H 62.58044"
               id="path837-5-1"
               inkscape:connector-curvature="0" />
            <path
               style="fill:none;stroke:#000000;stroke-width:0.74191993;stroke-linecap:butt;stroke-linejoin:miter;stroke-miterlimit:4;stroke-dasharray:none;stroke-opacity:1"
               d="M 37.700079,96.397931 H 62.58044"
               id="path837-3-49"
               inkscape:connector-curvature="0" />
            <path
               style="fill:none;stroke:#000000;stroke-width:0.74191993;stroke-linecap:butt;stroke-linejoin:miter;stroke-miterlimit:4;stroke-dasharray:none;stroke-opacity:1"
               d="M 37.700079,81.134458 H 62.58044"
               id="path837-56-20"
               inkscape:connector-curvature="0" />
            <path
               style="fill:none;stroke:#000000;stroke-width:0.74191993;stroke-linecap:butt;stroke-linejoin:miter;stroke-miterlimit:4;stroke-dasharray:none;stroke-opacity:1"
               d="M 37.700079,65.870996 H 62.58044"
               id="path837-2-68"
               inkscape:connector-curvature="0" />
          </g>
        </g>
      </g>
      <path
         sodipodi:nodetypes="cc"
         inkscape:connector-curvature="0"
         id="path1173-2"
         d="m 109.13897,52.67619 127.3299,-0.219913"
         style="fill:none;stroke:#000000;stroke-width:0.26499999;stroke-linecap:butt;stroke-linejoin:miter;stroke-miterlimit:4;stroke-dasharray:0.79499997, 0.26499999;stroke-dashoffset:0;stroke-opacity:1" />
      <path
         sodipodi:nodetypes="cc"
         inkscape:connector-curvature="0"
         id="path1173-2-6"
         d="M 109.187,58.283983 236.5169,58.06407"
         style="fill:none;stroke:#000000;stroke-width:0.26499999;stroke-linecap:butt;stroke-linejoin:miter;stroke-miterlimit:4;stroke-dasharray:0.79499998, 0.26499999;stroke-dashoffset:0;stroke-opacity:1" />
      <path
         sodipodi:nodetypes="cc"
         inkscape:connector-curvature="0"
         id="path1173-2-9"
         d="M 108.63037,67.723079 235.96051,67.503166"
         style="fill:none;stroke:#000000;stroke-width:0.26499999;stroke-linecap:butt;stroke-linejoin:miter;stroke-miterlimit:4;stroke-dasharray:0.79499998, 0.26499999;stroke-dashoffset:0;stroke-opacity:1" />
      <path
         sodipodi:nodetypes="cc"
         inkscape:connector-curvature="0"
         id="path1173-2-6-5"
         d="M 108.6784,73.330872 236.00854,73.110959"
         style="fill:none;stroke:#000000;stroke-width:0.26499999;stroke-linecap:butt;stroke-linejoin:miter;stroke-miterlimit:4;stroke-dasharray:0.79499999, 0.26499999;stroke-dashoffset:0;stroke-opacity:1" />
      <path
         sodipodi:nodetypes="cc"
         inkscape:connector-curvature="0"
         id="path1173-2-7"
         d="M 109.0221,83.948565 236.35222,83.728652"
         style="fill:none;stroke:#000000;stroke-width:0.26499999;stroke-linecap:butt;stroke-linejoin:miter;stroke-miterlimit:4;stroke-dasharray:0.79499998, 0.26499999;stroke-dashoffset:0;stroke-opacity:1" />
      <path
         sodipodi:nodetypes="cc"
         inkscape:connector-curvature="0"
         id="path1173-2-6-1"
         d="M 109.07013,89.556358 236.40025,89.336445"
         style="fill:none;stroke:#000000;stroke-width:0.26499999;stroke-linecap:butt;stroke-linejoin:miter;stroke-miterlimit:4;stroke-dasharray:0.79499999, 0.26499999;stroke-dashoffset:0;stroke-opacity:1" />
      <path
         sodipodi:nodetypes="cc"
         inkscape:connector-curvature="0"
         id="path1173-2-72"
         d="m 109.55806,100.22216 127.3299,-0.21991"
         style="fill:none;stroke:#000000;stroke-width:0.26499999;stroke-linecap:butt;stroke-linejoin:miter;stroke-miterlimit:4;stroke-dasharray:0.79499998, 0.26499999;stroke-dashoffset:0;stroke-opacity:1" />
      <path
         sodipodi:nodetypes="cc"
         inkscape:connector-curvature="0"
         id="path1173-2-6-2"
         d="m 109.60609,105.82996 127.3299,-0.21992"
         style="fill:none;stroke:#000000;stroke-width:0.26499999;stroke-linecap:butt;stroke-linejoin:miter;stroke-miterlimit:4;stroke-dasharray:0.79499999, 0.26499999;stroke-dashoffset:0;stroke-opacity:1" />
      <path
         sodipodi:nodetypes="cc"
         inkscape:connector-curvature="0"
         id="path1173-2-61"
         d="m 108.89832,115.83601 127.32989,-0.21992"
         style="fill:none;stroke:#000000;stroke-width:0.26499999;stroke-linecap:butt;stroke-linejoin:miter;stroke-miterlimit:4;stroke-dasharray:0.79499998, 0.26499999;stroke-dashoffset:0;stroke-opacity:1" />
      <path
         sodipodi:nodetypes="cc"
         inkscape:connector-curvature="0"
         id="path1173-2-6-59"
         d="m 108.94635,121.4438 127.32989,-0.21991"
         style="fill:none;stroke:#000000;stroke-width:0.26499999;stroke-linecap:butt;stroke-linejoin:miter;stroke-miterlimit:4;stroke-dasharray:0.79499999, 0.26499999;stroke-dashoffset:0;stroke-opacity:1" />
      <path
         sodipodi:nodetypes="cc"
         inkscape:connector-curvature="0"
         id="path1173-2-0"
         d="m 108.01866,132.1096 127.32991,-0.21991"
         style="fill:none;stroke:#000000;stroke-width:0.26499999;stroke-linecap:butt;stroke-linejoin:miter;stroke-miterlimit:4;stroke-dasharray:0.79499998, 0.26499999;stroke-dashoffset:0;stroke-opacity:1" />
      <path
         sodipodi:nodetypes="cc"
         inkscape:connector-curvature="0"
         id="path1173-2-6-9"
         d="M 108.06669,137.7174 235.3966,137.49748"
         style="fill:none;stroke:#000000;stroke-width:0.26499999;stroke-linecap:butt;stroke-linejoin:miter;stroke-miterlimit:4;stroke-dasharray:0.79499999, 0.26499999;stroke-dashoffset:0;stroke-opacity:1" />
    </g>
    <text
       xml:space="preserve"
       style="font-style:normal;font-weight:normal;font-size:10.58333302px;line-height:1.25;font-family:sans-serif;letter-spacing:0px;word-spacing:0px;fill:#ff8f00;fill-opacity:1;stroke:none;stroke-width:0.26458332"
       x="80.223671"
       y="12.872478"
       id="text1391"><tspan
         sodipodi:role="line"
         id="tspan1389"
         x="80.223671"
         y="12.872478"
         style="text-align:center;text-anchor:middle;fill:#ff8f00;fill-opacity:1;stroke-width:0.26458332">Clef de</tspan><tspan
         sodipodi:role="line"
         x="80.223671"
         y="26.101645"
         style="text-align:center;text-anchor:middle;fill:#ff8f00;fill-opacity:1;stroke-width:0.26458332"
         id="tspan1397">tri</tspan></text>
    <text
       xml:space="preserve"
       style="font-style:normal;font-weight:normal;font-size:10.58333302px;line-height:1.25;font-family:sans-serif;letter-spacing:0px;word-spacing:0px;fill:#000000;fill-opacity:1;stroke:none;stroke-width:0.26458332"
       x="69.272728"
       y="10.672728"
       id="text1395"><tspan
         sodipodi:role="line"
         id="tspan1393"
         x="69.272728"
         y="20.036497"
         style="stroke-width:0.26458332"></tspan></text>
    <text
       xml:space="preserve"
       style="font-style:normal;font-weight:normal;font-size:10.58333302px;line-height:1.25;font-family:sans-serif;letter-spacing:0px;word-spacing:0px;fill:#ff8f00;fill-opacity:1;stroke:none;stroke-width:0.26458332"
       x="68.420769"
       y="40.800865"
       id="text1401"><tspan
         sodipodi:role="line"
         id="tspan1399"
         x="68.420769"
         y="40.800865"
         style="fill:#ff8f00;fill-opacity:1;stroke-width:0.26458332">time</tspan></text>
    <text
       xml:space="preserve"
       style="font-style:normal;font-weight:normal;font-size:10.58333302px;line-height:1.25;font-family:sans-serif;letter-spacing:0px;word-spacing:0px;fill:#000000;fill-opacity:1;stroke:none;stroke-width:0.26458332"
       x="149.81462"
       y="19.41213"
       id="text1405"><tspan
         sodipodi:role="line"
         id="tspan1403"
         x="149.81462"
         y="19.41213"
         style="stroke-width:0.26458332">Attributs</tspan></text>
  </g>
</svg>
