station,valid,lon,lat,tmpf,dwpf,relh,drct,sknt,p01i,alti,mslp,vsby,gust,skyc1,skyc2,skyc3,skyc4,skyl1,skyl2,skyl3,skyl4,wxcodes,ice_accretion_1hr,ice_accretion_3hr,ice_accretion_6hr,peak_wind_gust,peak_wind_drct,peak_wind_time,feel,metar
LELO,2011-08-31 16:08,-2.3311,42.4522,82.40,62.60,51.21,250.00,6.00,null,29.74,null,6.21,-99.00,SCT,   ,   ,   ,5000.00,null,null,null,TSRA,null,null,null,null,null,null,83.41,LELO 311608Z 25006KT 230V290 9999 TSRA SCT050CB 28/17 Q1007
LELO,2011-09-16 16:03,-2.3311,42.4522,82.40,66.20,58.08,210.00,20.00,null,29.97,null,4.35,30.00,SCT,SCT,   ,   ,3500.00,6500.00,null,null,+TSRA,null,null,null,null,null,null,84.63,LELO 161603Z 21020G30KT 170V230 7000 +TSRA SCT035CB SCT065 28/19       Q1015
LELO,2011-09-16 16:18,-2.3311,42.4522,77.00,59.00,53.80,190.00,19.00,null,30.00,null,1.86,36.00,SCT,BKN,   ,   ,1500.00,2500.00,null,null,+TSRA,null,null,null,null,null,null,77.00,LELO 161618Z 19019G36KT 150V210 3000 R29/0750VP2000U +TSRA SCT015       BKN025CB 25/15 Q1016
LELO,2011-10-15 06:45,-2.3311,42.4522,46.40,42.80,87.19,0.00,1.00,null,30.21,null,6.21,-99.00,BKN,   ,   ,   ,1400.00,null,null,null,null,null,null,null,null,null,null,46.40,LELO 150645Z VRB01KT 9999 BKN014 08/06 Q1023
LELO,2011-10-26 06:15,-2.3311,42.4522,37.40,33.80,86.69,null,2.00,null,29.91,null,6.21,null,NSC,   ,   ,   ,null,null,null,null,BCFG,null,null,null,null,null,null,37.40,LELO 260615Z VRB02KT 9999 0150S BCFG NSC 03/01 Q1013
LELO,2011-10-26 06:48,-2.3311,42.4522,37.40,33.80,86.69,0.00,0.00,null,29.91,null,6.21,null,   ,   ,   ,   ,null,null,null,null,null,null,null,null,null,null,null,37.40,LELO 260648Z 00000KT CAVOK 03/01 Q1013
LELO,2011-11-27 07:11,-2.3311,42.4522,33.80,33.80,100.00,null,1.00,null,30.39,null,0.19,null,BKN,   ,   ,   ,200.00,null,null,null,FG,null,null,null,null,null,null,33.80,LELO 270711Z VRB01KT 0300 R29/0650VP2000D FG BKN002 01/01 Q1029
LELO,2011-12-13 07:48,-2.3311,42.4522,33.80,33.80,100.00,0.00,0.00,null,30.12,null,0.56,null,FEW,   ,   ,   ,4000.00,null,null,null,FG,null,null,null,null,null,null,33.80,LELO 130748Z 00000KT 0900 R29/1000VP2000U FG FEW040 01/01 Q1020
LELO,2012-03-15 15:00,-2.3311,42.4522,77.00,33.80,20.74,110.00,11.00,0.00,30.21,null,6.21,null,null,null,null,null,null,null,null,null,null,null,null,null,null,null,null,77.00,LELO 151500Z 11011KT 080V140 CAVOK 25/01 Q1023
LELO,2012-03-15 15:30,-2.3311,42.4522,77.00,33.80,20.74,100.00,10.00,0.00,30.21,null,6.21,null,null,null,null,null,null,null,null,null,null,null,null,null,null,null,null,77.00,LELO 151530Z 10010KT 070V140 CAVOK 25/01 Q1023
LELO,2012-03-15 16:00,-2.3311,42.4522,77.00,32.00,19.30,100.00,9.00,0.00,30.21,null,6.21,null,null,null,null,null,null,null,null,null,null,null,null,null,null,null,null,77.00,LELO 151600Z 10009KT CAVOK 25/00 Q1023
LELO,2012-03-15 16:30,-2.3311,42.4522,75.20,30.20,19.05,100.00,10.00,0.00,30.21,null,6.21,null,null,null,null,null,null,null,null,null,null,null,null,null,null,null,null,75.20,LELO 151630Z 10010KT CAVOK 24/M01 Q1023
LELO,2012-03-15 17:00,-2.3311,42.4522,75.20,30.20,19.05,100.00,8.00,0.00,30.21,null,6.21,null,null,null,null,null,null,null,null,null,null,null,null,null,null,null,null,75.20,LELO 151700Z 10008KT CAVOK 24/M01 Q1023
LELO,2012-03-15 17:30,-2.3311,42.4522,73.40,28.40,18.80,90.00,7.00,0.00,30.21,null,6.21,null,null,null,null,null,null,null,null,null,null,null,null,null,null,null,null,73.40,LELO 151730Z 09007KT CAVOK 23/M02 Q1023
LELO,2012-03-15 18:00,-2.3311,42.4522,71.60,32.00,23.13,70.00,4.00,0.00,30.21,null,6.21,null,null,null,null,null,null,null,null,null,null,null,null,null,null,null,null,71.60,LELO 151800Z 07004KT 030V120 CAVOK 22/M00 Q1023
LELO,2012-03-15 18:30,-2.3311,42.4522,66.20,30.20,25.88,60.00,3.00,0.00,30.21,null,6.21,null,null,null,null,null,null,null,null,null,null,null,null,null,null,null,null,66.20,LELO 151830Z 06003KT CAVOK 19/M01 Q1023
LELO,2012-03-15 19:00,-2.3311,42.4522,64.40,32.00,29.63,0.00,0.00,0.00,30.21,null,6.21,null,null,null,null,null,null,null,null,null,null,null,null,null,null,null,null,64.40,LELO 151900Z 00000KT CAVOK 18/M00 Q1023
LELO,2012-03-15 19:30,-2.3311,42.4522,59.00,32.00,35.87,0.00,0.00,0.00,30.21,null,6.21,null,null,null,null,null,null,null,null,null,null,null,null,null,null,null,null,59.00,LELO 151930Z 00000KT CAVOK 15/00 Q1023
LELO,2012-03-15 20:00,-2.3311,42.4522,57.20,35.60,44.19,0.00,0.00,0.00,30.21,null,6.21,null,null,null,null,null,null,null,null,null,null,null,null,null,null,null,null,57.20,LELO 152000Z 00000KT CAVOK 14/02 Q1023
LELO,2012-03-15 20:30,-2.3311,42.4522,55.40,33.80,43.90,0.00,0.00,0.00,30.24,null,6.21,null,null,null,null,null,null,null,null,null,null,null,null,null,null,null,null,55.40,LELO 152030Z 00000KT CAVOK 13/01 Q1024
LELO,2012-05-18 20:21,-2.3311,42.4522,64.40,55.40,72.56,90.00,4.00,0.00,29.74,null,3.73,null,SCT,null,null,null,4000.00,null,null,null,RA TS,null,null,null,null,null,null,64.40,LELO 182021Z 09004KT 050V210 6000 RA TS SCT040CB 18/13 Q1007
LELO,2012-05-19 14:43,-2.3311,42.4522,59.00,53.60,82.25,250.00,13.00,0.00,29.74,null,0.62,32.00,SCT,SCT,null,null,2000.00,4000.00,null,null,+RA TS,null,null,null,null,null,null,59.00,LELO 191443Z 25013G32KT 230V290 1000 R29/P2000 +RA TS SCT020 SCT040CB 15/12 Q1007
LELO,2012-05-28 23:42,-2.3311,42.4522,68.00,57.20,68.35,220.00,5.00,0.00,30.03,null,6.21,null,SCT,null,null,null,5000.00,null,null,null,TSRA,null,null,null,null,null,null,68.00,LELO 282342Z 22005KT 140V310 9999 TSRA SCT050CB 20/14 Q1017
LELO,2012-05-31 12:00,-2.3311,42.4522,84.20,55.40,37.35,null,2.00,0.00,30.12,null,6.21,null,null,null,null,null,null,null,null,null,null,null,null,null,null,null,null,84.20,LELO 311200Z VRB02KT CAVOK 29/13 Q1020
LELO,2012-05-31 13:00,-2.3311,42.4522,87.80,53.60,31.17,null,3.00,0.00,30.09,null,6.21,null,null,null,null,null,null,null,null,null,null,null,null,null,null,null,null,87.80,LELO 311300Z VRB03KT CAVOK 31/12 Q1019
LELO,2012-06-11 13:25,-2.3311,42.4522,71.60,51.80,49.64,280.00,16.00,0.00,29.77,null,4.97,29.00,FEW,SCT,null,null,3500.00,6500.00,null,null,SHRA,null,null,null,null,null,null,71.60,LELO 111325Z 28016G29KT 240V330 8000 SHRA FEW035TCU SCT065 22/11 Q1008
LELO,2012-06-11 13:36,-2.3311,42.4522,71.60,51.80,49.64,230.00,17.00,0.00,29.77,null,6.21,null,FEW,SCT,null,null,1500.00,4000.00,null,null,null,null,null,null,null,null,null,71.60,LELO 111336Z 23017KT 200V260 9999 FEW015 SCT040CB 22/11 Q1008
LELO,2012-06-11 19:13,-2.3311,42.4522,57.20,53.60,87.74,250.00,3.00,0.00,29.88,null,6.21,null,FEW,SCT,null,null,1500.00,4000.00,null,null,-SHRA,null,null,null,null,null,null,57.20,LELO 111913Z 25003KT 230V290 9999 -SHRA FEW015 SCT040TCU 14/12 Q1012
LELO,2012-06-19 04:44,-2.3311,42.4522,62.60,60.80,93.83,260.00,4.00,0.00,29.97,null,6.21,null,SCT,BKN,null,null,1400.00,3500.00,null,null,SHRA,null,null,null,null,null,null,62.60,LELO 190444Z 26004KT 230V290 9999 SHRA SCT014TCU BKN035 17/16 Q1015
LELO,2012-06-19 05:36,-2.3311,42.4522,60.80,60.80,100.00,0.00,0.00,0.00,29.97,null,6.21,null,SCT,BKN,null,null,1200.00,3500.00,null,null,-RA,null,null,null,null,null,null,60.80,LELO 190536Z 00000KT 9999 -RA SCT012 BKN035 16/16 Q1015
LELO,2012-06-20 08:36,-2.3311,42.4522,66.20,62.60,88.18,null,2.00,0.00,29.97,null,6.21,null,FEW,BKN,null,null,600.00,1300.00,null,null,null,null,null,null,null,null,null,66.20,LELO 200836Z VRB02KT 9999 FEW006 BKN013 19/17 Q1015
LELO,2012-07-26 17:39,-2.3311,42.4522,93.20,55.40,28.10,80.00,7.00,0.00,29.83,null,6.21,null,SCT,SCT,null,null,3500.00,6800.00,null,null,TS,null,null,null,null,null,null,93.20,LELO 261739Z 08007KT 040V110 9999 TS SCT035CB SCT068 34/13 Q1010
LELO,2012-07-27 14:33,-2.3311,42.4522,84.20,64.40,51.47,260.00,14.00,0.00,29.94,null,6.21,null,SCT,BKN,null,null,3500.00,6000.00,null,null,TS,null,null,null,null,null,null,85.71,LELO 271433Z 26014KT 230V290 9999 TS SCT035CB BKN060 29/18 Q1014
LELO,2012-09-21 15:15,-2.3311,42.4522,80.60,64.40,57.84,260.00,14.00,0.00,29.94,null,4.97,24.00,SCT,BKN,null,null,3500.00,5500.00,null,null,SHRA,null,null,null,null,null,null,82.27,LELO 211515Z 26014G24KT 8000 SHRA SCT035CB BKN055 27/18 Q1014
LELO,2012-09-21 15:22,-2.3311,42.4522,71.60,68.00,88.43,350.00,9.00,0.00,29.94,null,3.11,null,SCT,BKN,null,null,3500.00,5500.00,null,null,+TSRA,null,null,null,null,null,null,71.60,LELO 211522Z 35009KT 320V050 5000 R29/0900VP2000D +TSRA SCT035CB BKN055 22/20 Q1014
LELO,2012-09-21 15:35,-2.3311,42.4522,71.60,64.40,78.04,80.00,10.00,0.00,29.91,null,6.21,null,SCT,null,null,null,3500.00,null,null,null,-TSRA,null,null,null,null,null,null,71.60,LELO 211535Z 08010KT 020V120 9999 -TSRA SCT035CB 22/18 Q1013
LELO,2012-10-10 20:15,-2.3311,42.4522,62.60,62.60,100.00,30.00,5.00,0.00,29.91,null,0.31,null,SCT,OVC,null,null,4500.00,5000.00,null,null,+TSRA,null,null,null,null,null,null,62.60,LELO 102015Z 03005KT 280V080 0500 R29/0600VP2000U +TSRA SCT045CB OVC050 17/17 Q1013
LELO,2012-10-11 16:43,-2.3311,42.4522,66.20,64.40,93.92,null,2.00,0.00,29.85,null,2.49,null,FEW,BKN,null,null,4000.00,5000.00,null,null,TS RA,null,null,null,null,null,null,66.20,LELO 111643Z VRB02KT 4000 TS RA FEW040CB BKN050 19/18 Q1011
LELO,2012-10-14 15:25,-2.3311,42.4522,55.40,53.60,93.65,null,8.00,0.00,29.74,null,6.21,18.00,FEW,BKN,null,null,3000.00,5000.00,null,null,-RA,null,null,null,null,null,null,55.40,LELO 141525Z VRB08G18KT 9999 -RA FEW030CB BKN050 13/12 Q1007
LELO,2012-10-19 10:46,-2.3311,42.4522,55.40,53.60,93.65,270.00,3.00,0.00,29.83,null,1.06,null,FEW,OVC,null,null,1000.00,4000.00,null,null,RA BR,null,null,null,null,null,null,55.40,LELO 191046Z 27003KT 1700 RA BR FEW010 OVC040 13/12 Q1010
LELO,2012-10-19 11:11,-2.3311,42.4522,55.40,53.60,93.65,null,1.00,0.00,29.80,null,6.21,null,SCT,null,null,null,3000.00,null,null,null,-RA,null,null,null,null,null,null,55.40,LELO 191111Z VRB01KT 9999 -RA SCT030 13/12 Q1009
LELO,2012-10-26 07:16,-2.3311,42.4522,59.00,57.20,93.74,320.00,6.00,0.00,29.56,null,2.49,null,FEW,SCT,BKN,null,200.00,1000.00,6000.00,null,-RA BR,null,null,null,null,null,null,59.00,LELO 260716Z 32006KT 280V050 4000 -RA BR FEW002 SCT010 BKN060 15/14 Q1001
LELO,2012-10-26 19:18,-2.3311,42.4522,59.00,59.00,100.00,260.00,7.00,0.00,29.53,null,4.97,null,SCT,BKN,null,null,3000.00,6000.00,null,null,RA,null,null,null,null,null,null,59.00,LELO 261918Z 26007KT 8000 RA SCT030 BKN060 15/15 Q1000
LELO,2012-11-17 17:24,-2.3311,42.4522,55.40,55.40,100.00,80.00,5.00,0.00,29.77,null,1.86,null,FEW,SCT,null,null,1000.00,5000.00,null,null,RA,null,null,null,null,null,null,55.40,LELO 171724Z 08005KT 050V110 3000 RA FEW010 SCT050 13/13 Q1008
LELO,2012-11-20 06:46,-2.3311,42.4522,37.40,37.40,100.00,0.00,0.00,0.00,30.06,null,1.55,null,NSC,null,null,null,null,null,null,null,MIFG,null,null,null,null,null,null,37.40,LELO 200646Z 00000KT 2500 MIFG NSC 03/03 Q1018
LELO,2012-11-20 07:29,-2.3311,42.4522,37.40,37.40,100.00,0.00,0.00,0.00,30.06,null,3.73,null,NSC,null,null,null,null,null,null,null,null,null,null,null,null,null,null,37.40,LELO 200729Z 00000KT 6000 NSC 03/03 Q1018
LELO,2012-11-25 08:35,-2.3311,42.4522,51.80,51.80,100.00,250.00,4.00,0.00,30.12,null,1.24,null,BKN,BKN,null,null,1800.00,3000.00,null,null,RA,null,null,null,null,null,null,51.80,LELO 250835Z 25004KT 2000 RA BKN018 BKN030 11/11 Q1020
LELO,2012-11-26 07:39,-2.3311,42.4522,51.80,51.80,100.00,0.00,0.00,0.00,29.94,null,2.49,null,FEW,SCT,BKN,null,1000.00,3500.00,5000.00,null,BR -RA,null,null,null,null,null,null,51.80,LELO 260739Z 00000KT 4000 BR -RA FEW010 SCT035 BKN050 11/11 Q1014
LELO,2012-11-26 17:23,-2.3311,42.4522,46.40,46.40,100.00,270.00,3.00,0.00,29.88,null,6.21,null,FEW,SCT,BKN,null,1000.00,2300.00,5000.00,null,-RA,null,null,null,null,null,null,45.15,LELO 261723Z 27003KT 240V300 9999 -RA FEW010 SCT023 BKN050 08/08 Q1012
LELO,2012-12-14 09:32,-2.3311,42.4522,42.80,42.80,100.00,null,1.00,0.00,29.71,null,3.73,null,FEW,SCT,null,null,1000.00,6000.00,null,null,null,null,null,null,null,null,null,42.80,LELO 140932Z VRB01KT 6000 FEW010 SCT060 06/06 Q1006
LELO,2012-12-19 19:09,-2.3311,42.4522,48.20,48.20,100.00,0.00,0.00,0.00,30.03,null,2.49,null,BKN,null,null,null,1200.00,null,null,null,BR,null,null,null,null,null,null,48.20,LELO 191909Z 00000KT 4000 BR BKN012 09/09 Q1017
LELO,2013-01-19 09:19,-2.3311,42.4522,50.00,46.40,87.37,280.00,14.00,0.00,28.97,null,1.86,null,FEW,SCT,BKN,null,500.00,3500.00,4000.00,null,BR RA,null,null,null,null,null,null,44.36,LELO 190919Z 28014KT 260V320 3000 BR RA FEW005 SCT035 BKN040 10/08 Q0981
LELO,2013-01-30 06:15,-2.3311,42.4522,37.40,37.40,100.00,0.00,0.00,0.00,30.36,null,0.43,null,SCT,null,null,null,100.00,null,null,null,BCFG,null,null,null,null,null,null,37.40,LELO 300615Z 00000KT 0700 R29/1300VP2000D BCFG SCT001 03/03 Q1028
LELO,2013-01-30 07:31,-2.3311,42.4522,37.40,37.40,100.00,0.00,0.00,0.00,30.36,null,1.93,null,FEW,null,null,null,100.00,null,null,null,MIFG,null,null,null,null,null,null,37.40,LELO 300731Z 00000KT 3100 MIFG FEW001 03/03 Q1028
LELO,2013-02-07 09:46,-2.3311,42.4522,37.40,35.60,93.14,270.00,14.00,0.00,30.27,null,1.55,null,BKN,OVC,null,null,1000.00,1500.00,null,null,+RA,null,null,null,null,null,null,28.12,LELO 070946Z 27014KT 2500 +RA BKN010 OVC015 03/02 Q1025
LELO,2013-02-16 08:37,-2.3311,42.4522,37.40,37.40,100.00,0.00,0.00,0.00,30.15,null,3.73,null,NSC,null,null,null,null,null,null,null,null,null,null,null,null,null,null,37.40,LELO 160837Z 00000KT 6000 NSC 03/03 Q1021
LELO,2013-02-18 09:15,-2.3311,42.4522,46.40,44.60,93.40,0.00,0.00,0.00,29.91,null,1.86,null,SCT,null,null,null,1100.00,null,null,null,BR,null,null,null,null,null,null,46.40,LELO 180915Z 00000KT 3000 BR SCT011 08/07 Q1013
LELO,2013-02-18 10:46,-2.3311,42.4522,50.00,46.40,87.37,0.00,0.00,0.00,29.91,null,3.73,null,FEW,BKN,null,null,1100.00,5300.00,null,null,null,null,null,null,null,null,null,50.00,LELO 181046Z 00000KT 6000 FEW011 BKN053 10/08 Q1013
LELO,2013-03-07 16:28,-2.3311,42.4522,60.80,55.40,82.37,null,4.00,0.00,29.35,null,6.21,null,FEW,SCT,null,null,5000.00,6000.00,null,null,-TSRA,null,null,null,null,null,null,60.80,LELO 071628Z VRB04KT 9999 -TSRA FEW050CB SCT060 16/13 Q0994
LELO,2013-03-09 07:33,-2.3311,42.4522,44.60,44.60,100.00,null,2.00,0.00,29.65,null,3.11,null,BKN,OVC,null,null,300.00,3000.00,null,null,BR,null,null,null,null,null,null,44.60,LELO 090733Z VRB02KT 5000 BR BKN003 OVC030 07/07 Q1004
LELO,2013-03-25 20:17,-2.3311,42.4522,50.00,48.20,93.50,350.00,9.00,0.00,29.62,null,1.24,null,SCT,BKN,BKN,null,600.00,1600.00,2500.00,null,+SHRA,null,null,null,null,null,null,45.90,LELO 252017Z 35009KT 260V060 2000 +SHRA SCT006 BKN016 BKN025TCU 10/09 Q1003
LELO,2013-03-25 20:30,-2.3311,42.4522,48.20,48.20,100.00,50.00,5.00,0.00,29.59,null,2.17,null,FEW,BKN,BKN,null,600.00,1600.00,4500.00,null,RA,null,null,null,null,null,null,45.63,LELO 252030Z 05005KT 360V110 3500 RA FEW006 BKN016 BKN045 09/09 Q1002
LELO,2013-03-27 19:44,-2.3311,42.4522,57.20,53.60,87.74,null,5.00,0.00,29.59,null,0.56,null,SCT,OVC,null,null,1500.00,3000.00,null,null,+RA,null,null,null,null,null,null,57.20,LELO 271944Z VRB05KT 0900 R29/1800D +RA SCT015 OVC030 14/12 Q1002
LELO,2013-04-04 12:03,-2.3311,42.4522,53.60,44.60,71.45,300.00,9.00,0.00,29.53,null,6.21,null,FEW,BKN,null,null,2000.00,3500.00,null,null,-RA,null,null,null,null,null,null,53.60,LELO 041203Z 30009KT 250V360 9999 -RA FEW020TCU BKN035 12/07 Q1000
LELO,2013-04-11 13:31,-2.3311,42.4522,57.20,51.80,82.12,300.00,16.00,0.00,29.80,null,3.11,26.00,FEW,SCT,null,null,3000.00,4000.00,null,null,RA,null,null,null,null,null,null,57.20,LELO 111331Z 30016G26KT 270V340 5000 RA FEW030 SCT040 14/11 Q1009
LELO,2013-05-14 17:35,-2.3311,42.4522,66.20,55.40,68.15,60.00,9.00,0.00,29.68,null,6.21,null,SCT,SCT,null,null,4200.00,6200.00,null,null,-TSRA,null,null,null,null,null,null,66.20,LELO 141735Z 06009KT 020V100 9999 -TSRA SCT042CB SCT062 19/13 Q1005
LELO,2013-05-14 19:15,-2.3311,42.4522,60.80,55.40,82.37,340.00,4.00,0.00,29.71,null,6.21,null,SCT,SCT,null,null,2000.00,3500.00,null,null,+TSRA,null,null,null,null,null,null,60.80,LELO 141915Z 34004KT 290V060 9999 +TSRA SCT020CB SCT035 16/13 Q1006
LELO,2013-05-14 19:16,-2.3311,42.4522,60.80,55.40,82.37,340.00,4.00,0.00,29.71,null,4.97,null,SCT,SCT,null,null,2000.00,3500.00,null,null,+TSRA,null,null,null,null,null,null,60.80,LELO 141916Z 34004KT 290V060 8000 +TSRA SCT020CB SCT035 16/13 Q1006
LELO,2013-05-14 19:44,-2.3311,42.4522,57.20,55.40,93.69,50.00,9.00,0.00,29.68,null,4.97,null,FEW,SCT,null,null,2000.00,3500.00,null,null,-TSRA,null,null,null,null,null,null,57.20,LELO 141944Z 05009KT 010V100 8000 -TSRA FEW020CB SCT035 14/13 Q1005
LELO,2013-05-29 16:23,-2.3311,42.4522,51.80,48.20,87.47,260.00,14.00,0.00,29.88,null,1.86,25.00,FEW,BKN,null,null,1500.00,2500.00,null,null,RA BR,null,null,null,null,null,null,51.80,LELO 291623Z 26014G25KT 230V290 3000 RA BR FEW015 BKN025 11/09 Q1012
LELO,2013-06-06 13:42,-2.3311,42.4522,73.40,59.00,60.67,20.00,4.00,0.00,29.91,null,3.11,null,FEW,SCT,null,null,2500.00,4500.00,null,null,TSRA,null,null,null,null,null,null,73.40,LELO 061342Z 02004KT 290V090 5000 TSRA FEW025CB SCT045 23/15 Q1013
LELO,2013-06-07 14:31,-2.3311,42.4522,62.60,55.40,77.29,290.00,10.00,0.00,29.94,null,1.55,null,FEW,BKN,BKN,null,3000.00,3500.00,6000.00,null,TS +SHRA,null,null,null,null,null,null,62.60,LELO 071431Z 29010KT 230V330 2500 TS +SHRA FEW030CB BKN035 BKN060 17/13 Q1014
LELO,2013-06-07 14:46,-2.3311,42.4522,60.80,57.20,87.92,null,8.00,0.00,29.94,null,0.31,null,FEW,BKN,BKN,null,3000.00,3500.00,6000.00,null,TS +SHRA,null,null,null,null,null,null,60.80,LELO 071446Z VRB08KT 0500 R29/0800VP2000D TS +SHRA FEW030CB BKN035 BKN060 16/14 Q1014
LELO,2013-06-18 18:45,-2.3311,42.4522,55.40,53.60,93.65,280.00,8.00,0.00,29.94,null,6.21,null,BKN,BKN,null,null,2800.00,4400.00,null,null,+RA,null,null,null,null,null,null,55.40,LELO 181845Z 28008KT 240V320 9999 +RA BKN028 BKN044 13/12 Q1014
LELO,2013-07-10 22:12,-2.3311,42.4522,78.80,66.20,65.33,null,1.00,0.00,29.94,null,6.21,null,FEW,SCT,null,null,4000.00,6500.00,null,null,TS,null,null,null,null,null,null,78.80,LELO 102212Z VRB01KT 9999 TS FEW040CB SCT065 26/19 Q1014
LELO,2013-07-12 17:08,-2.3311,42.4522,84.20,57.20,39.86,190.00,5.00,0.00,29.94,null,6.21,null,SCT,null,null,null,4000.00,null,null,null,TS,null,null,null,null,null,null,84.20,LELO 121708Z 19005KT 160V220 9999 TS SCT040CB 29/14 Q1014 NOSIG
LELO,2013-07-12 18:30,-2.3311,42.4522,78.80,59.00,50.69,240.00,23.00,0.00,30.00,null,6.21,35.00,FEW,SCT,null,null,4000.00,6000.00,null,null,TS,null,null,null,null,null,null,78.80,LELO 121830Z 24023G35KT 220V280 9999 TS FEW040CB SCT060 26/15 Q1016
LELO,2013-07-14 15:31,-2.3311,42.4522,80.60,59.00,47.79,310.00,8.00,0.00,30.06,null,6.21,null,FEW,SCT,null,null,4000.00,6500.00,null,null,-TSRA,null,null,null,null,null,null,81.11,LELO 141531Z 31008KT 250V050 9999 -TSRA FEW040CB SCT065 27/15 Q1018
LELO,2013-07-15 14:12,-2.3311,42.4522,86.00,59.00,40.14,140.00,5.00,0.00,30.12,null,6.21,null,FEW,null,null,null,4000.00,null,null,null,null,null,null,null,null,null,null,85.47,LELO 151412Z 14005KT 080V190 9999 FEW040CB 30/15 Q1020
LELO,2013-07-15 14:13,-2.3311,42.4522,86.00,59.00,40.14,140.00,5.00,0.00,30.12,null,6.21,null,SCT,null,null,null,4000.00,null,null,null,null,null,null,null,null,null,null,85.47,LELO 151413Z 14005KT 080V190 9999 SCT040CB 30/15 Q1020
LELO,2013-07-16 17:51,-2.3311,42.4522,78.80,64.40,61.36,250.00,11.00,0.00,30.15,null,6.21,23.00,SCT,BKN,null,null,2500.00,4000.00,null,null,null,null,null,null,null,null,null,78.80,LELO 161751Z 25011G23KT 230V290 9999 SCT025CB BKN040 26/18 Q1021
LELO,2013-07-16 18:06,-2.3311,42.4522,62.60,60.80,93.83,280.00,26.00,0.00,30.21,null,0.31,43.00,SCT,OVC,null,null,1500.00,2500.00,null,null,TS +SHRA,null,null,null,null,null,null,62.60,LELO 161806Z 28026G43KT 230V320 0500 R29/0800VP2000D TS +SHRA SCT015CB OVC025 17/16 Q1023
LELO,2013-07-16 18:24,-2.3311,42.4522,62.60,60.80,93.83,300.00,10.00,0.00,30.18,null,6.21,22.00,SCT,BKN,OVC,null,3500.00,4000.00,6500.00,null,null,null,null,null,null,null,null,62.60,LELO 161824Z 30010G22KT 250V020 9999 SCT035CB BKN040 OVC065 17/16 Q1022 RETS RESHRA
LELO,2013-07-22 20:41,-2.3311,42.4522,73.40,66.20,78.19,280.00,16.00,0.00,30.00,null,6.21,27.00,SCT,SCT,null,null,4000.00,5800.00,null,null,TSRA,null,null,null,null,null,null,73.40,LELO 222041Z 28016G27KT 230V330 9999 TSRA SCT040CB SCT058 23/19 Q1016
LELO,2013-07-23 16:34,-2.3311,42.4522,91.40,66.20,43.61,null,3.00,0.00,29.88,null,6.21,15.00,FEW,SCT,null,null,4000.00,5300.00,null,null,null,null,null,null,null,null,null,94.29,LELO 231634Z VRB03G15KT 9999 FEW040TCU SCT053 33/19 Q1012
LELO,2013-07-23 16:35,-2.3311,42.4522,91.40,66.20,43.61,null,3.00,0.00,29.88,null,6.21,15.00,FEW,SCT,null,null,4000.00,5300.00,null,null,TS,null,null,null,null,null,null,94.29,LELO 231635Z VRB03G15KT 9999 TS FEW040CB SCT053 33/19 Q1012
LELO,2013-07-23 18:27,-2.3311,42.4522,77.00,66.20,69.33,null,2.00,0.00,29.97,null,6.21,null,FEW,SCT,null,null,4000.00,5600.00,null,null,TS,null,null,null,null,null,null,77.00,LELO 231827Z VRB02KT 9999 TS FEW040CB SCT056 25/19 Q1015
LELO,2013-07-23 19:12,-2.3311,42.4522,75.20,71.60,88.59,250.00,5.00,0.00,29.97,null,6.21,null,FEW,SCT,null,null,4000.00,5800.00,null,null,null,null,null,null,null,null,null,75.20,LELO 231912Z 25005KT 9999 FEW040TCU SCT058 24/22 Q1015
LELO,2013-08-07 13:18,-2.3311,42.4522,75.20,59.00,57.12,280.00,13.00,0.00,29.88,null,6.21,25.00,SCT,BKN,null,null,4000.00,5000.00,null,null,TS -RA,null,null,null,null,null,null,75.20,LELO 071318Z 28013G25KT 230V320 9999 TS -RA SCT040CB BKN050 24/15 Q1012
LELO,2013-08-07 14:31,-2.3311,42.4522,68.00,60.80,77.75,300.00,13.00,0.00,29.91,null,1.55,null,BKN,null,null,null,4000.00,null,null,null,TS RA BR,null,null,null,null,null,null,68.00,LELO 071431Z 30013KT 260V340 2500 TS RA BR BKN040CB 20/16 Q1013
LELO,2013-09-05 18:37,-2.3311,42.4522,68.00,60.80,77.75,300.00,11.00,0.00,29.91,null,0.93,null,FEW,SCT,BKN,null,1500.00,4000.00,6000.00,null,TS RA,null,null,null,null,null,null,68.00,LELO 051837Z 30011KT 240V340 1500 TS RA FEW015 SCT040CB BKN060 20/16 Q1013
LELO,2013-09-06 17:46,-2.3311,42.4522,71.60,62.60,73.27,270.00,22.00,0.00,29.94,null,1.55,41.00,FEW,SCT,BKN,null,2000.00,5000.00,6500.00,null,TSGR,null,null,null,null,null,null,71.60,LELO 061746Z 27022G41KT 240V300 2500 TSGR FEW020 SCT050CB BKN065 22/17 Q1014
LELO,2013-09-07 13:03,-2.3311,42.4522,66.20,66.20,100.00,240.00,8.00,0.00,30.03,null,2.17,null,FEW,SCT,BKN,null,2000.00,3000.00,4000.00,null,TS +SHRA,null,null,null,null,null,null,66.20,LELO 071303Z 24008KT 3500 TS +SHRA FEW020 SCT030CB BKN040 19/19 Q1017
LELO,2013-09-07 13:38,-2.3311,42.4522,64.40,64.40,100.00,null,6.00,0.00,29.97,null,6.21,null,FEW,BKN,BKN,null,2000.00,3000.00,4000.00,null,TS -RA,null,null,null,null,null,null,64.40,LELO 071338Z VRB06KT 9999 TS -RA FEW020 BKN030CB BKN040 18/18 Q1015
LELO,2013-09-25 07:43,-2.3311,42.4522,68.00,64.40,88.26,80.00,5.00,0.00,29.97,null,6.21,null,BKN,null,null,null,1200.00,null,null,null,null,null,null,null,null,null,null,68.00,LELO 250743Z 08005KT 020V120 9999 BKN012 20/18 Q1015
LELO,2013-09-28 13:20,-2.3311,42.4522,68.00,60.80,77.75,240.00,7.00,0.00,29.71,null,3.73,null,FEW,SCT,BKN,null,2500.00,3500.00,6000.00,null,SHRA,null,null,null,null,null,null,68.00,LELO 281320Z 24007KT 200V260 6000 SHRA FEW025 SCT035TCU BKN060 20/16 Q1006
LELO,2013-10-02 06:34,-2.3311,42.4522,62.60,62.60,100.00,0.00,0.00,0.00,29.88,null,3.73,null,FEW,SCT,null,null,2000.00,6000.00,null,null,null,null,null,null,null,null,null,62.60,LELO 020634Z 00000KT 6000 FEW020CB SCT060 17/17 Q1012
LELO,2013-10-02 17:20,-2.3311,42.4522,75.20,68.00,78.34,40.00,4.00,0.00,29.80,null,6.21,null,SCT,null,null,null,3500.00,null,null,null,TSRA,null,null,null,null,null,null,75.20,LELO 021720Z 04004KT 010V070 9999 TSRA SCT035CB 24/20 Q1009
LELO,2013-10-03 18:27,-2.3311,42.4522,75.20,66.20,73.61,0.00,0.00,0.00,29.88,null,6.21,null,FEW,null,null,null,2500.00,null,null,null,TS,null,null,null,null,null,null,75.20,LELO 031827Z 00000KT 9999 TS FEW025CB 24/19 Q1012
LELO,2013-10-04 03:24,-2.3311,42.4522,64.40,64.40,100.00,null,2.00,0.00,29.97,null,4.97,null,SCT,SCT,null,null,2000.00,4500.00,null,null,SHRA,null,null,null,null,null,null,64.40,LELO 040324Z VRB02KT 8000 SHRA SCT020 SCT045CB 18/18 Q1015
LELO,2013-10-04 03:28,-2.3311,42.4522,64.40,64.40,100.00,260.00,3.00,0.00,29.97,null,4.35,null,SCT,SCT,null,null,2000.00,4500.00,null,null,TSRA,null,null,null,null,null,null,64.40,LELO 040328Z 26003KT 7000 TSRA SCT020 SCT045CB 18/18 Q1015
LELO,2013-10-04 05:16,-2.3311,42.4522,62.60,62.60,100.00,280.00,8.00,0.00,29.97,null,6.21,null,FEW,SCT,BKN,null,700.00,2900.00,5000.00,null,null,null,null,null,null,null,null,62.60,LELO 040516Z 28008KT 250V320 9999 FEW007 SCT029TCU BKN050 17/17 Q1015
LELO,2013-10-04 05:47,-2.3311,42.4522,62.60,62.60,100.00,240.00,9.00,0.00,30.00,null,6.21,null,FEW,SCT,BKN,null,1500.00,3000.00,5500.00,null,-TSRA,null,null,null,null,null,null,62.60,LELO 040547Z 24009KT 9999 -TSRA FEW015 SCT030CB BKN055 17/17 Q1016
LELO,2013-10-04 06:29,-2.3311,42.4522,62.60,62.60,100.00,null,2.00,0.00,29.97,null,6.21,null,FEW,SCT,null,null,1500.00,3500.00,null,null,null,null,null,null,null,null,null,62.60,LELO 040629Z VRB02KT 9999 FEW015 SCT035CB 17/17 Q1015
LELO,2013-10-23 06:34,-2.3311,42.4522,46.40,46.40,100.00,null,1.00,0.00,29.91,null,3.73,null,FEW,null,null,null,5000.00,null,null,null,null,null,null,null,null,null,null,46.40,LELO 230634Z VRB01KT 6000 FEW050 08/08 Q1013
LELO,2013-10-25 08:42,-2.3311,42.4522,60.80,60.80,100.00,280.00,5.00,0.00,29.91,null,3.11,null,BKN,null,null,null,1400.00,null,null,null,RA,null,null,null,null,null,null,60.80,LELO 250842Z 28005KT 240V330 5000 RA BKN014 16/16 Q1013
LELO,2013-11-15 20:17,-2.3311,42.4522,41.00,39.20,93.24,270.00,10.00,0.00,30.18,null,6.21,null,SCT,SCT,BKN,null,1200.00,2000.00,3500.00,null,-RA,null,null,null,null,null,null,34.25,LELO 152017Z 27010KT 240V310 9999 -RA SCT012 SCT020 BKN035 05/04 Q1022
LELO,2013-12-09 06:52,-2.3311,42.4522,30.20,30.20,100.00,null,1.00,0.00,30.45,null,0.56,null,BKN,BKN,null,null,100.00,500.00,null,null,BCFG,null,null,null,null,null,null,30.20,LELO 090652Z VRB01KT 0900 R29/1900N BCFG BKN001 BKN005 M01/M01 Q1031
LELO,2013-12-09 09:20,-2.3311,42.4522,33.80,33.80,100.00,0.00,0.00,0.00,30.47,null,0.75,null,SCT,BKN,null,null,100.00,300.00,null,null,BR,null,null,null,null,null,null,33.80,LELO 090920Z 00000KT 1200 R29/1400U BR SCT001 BKN003 01/01 Q1032
LELO,2013-12-16 19:12,-2.3311,42.4522,37.40,37.40,100.00,90.00,8.00,0.00,30.36,null,0.31,null,OVC,null,null,null,300.00,null,null,null,FZFG,null,null,null,null,null,null,30.77,LELO 161912Z 09008KT 050V120 0500 R29/1300N FZFG OVC003 03/03 Q1028
LELO,2013-12-19 15:21,-2.3311,42.4522,48.20,46.40,93.45,0.00,0.00,0.00,29.88,null,1.55,null,FEW,BKN,null,null,1000.00,6500.00,null,null,BR,null,null,null,null,null,null,48.20,LELO 191521Z 00000KT 2500 BR FEW010 BKN065 09/08 Q1012
